duksoo - 경기도 초중등
…
1.1 경기도 교육지원청 코드

코드

library(tidyverse)
library(readxl)
edu_table_raw <- read_excel("data/전국교육행정구역표준데이터-20230204.xlsx", sheet="데이터", skip=1)

gg_edu_code <- edu_table_raw %>%
  filter(str_detect(시도교육청명, "경기도교육청")) %>% 
  select("교육행정구역ID", "교육행정구역명", "시도교육청코드", "시도교육청명", "교육지원청코드", "교육지원청명")

gg_edu_code
#> # A tibble: 25 × 6
#>    교육행정구역ID 교육행정구역명 시도교육청코드 시도교육청명 교육지원…¹ 교육지…²
#>    <chr>          <chr>          <chr>          <chr>        <chr>      <chr>   
#>  1 S000000061     용인           7530000        경기도교육청 7751000    용인교… 
#>  2 S000000047     안산           7530000        경기도교육청 7611000    안산교… 
#>  3 S000000050     군포의왕       7530000        경기도교육청 7642000    군포의… 
#>  4 S000000043     안양과천       7530000        경기도교육청 7569000    안양과… 
#>  5 S000000040     수원           7530000        경기도교육청 7541000    수원교… 
#>  6 S000000053     화성오산       7530000        경기도교육청 7679000    화성오… 
#>  7 S000000041     성남           7530000        경기도교육청 7551000    성남교… 
#>  8 S000000042     의정부         7530000        경기도교육청 7561000    의정부… 
#>  9 S000000044     부천           7530000        경기도교육청 7581000    부천교… 
#> 10 S000000045     광명           7530000        경기도교육청 7591000    광명교… 
#> # … with 15 more rows, and abbreviated variable names ¹​교육지원청코드,
#> #   ²​교육지원청명
…
resp <- GET(school_url)

school_json <- content(resp, "text", encoding='utf-8')

school_raw <- jsonlite::fromJSON(school_json)

school_df <- school_raw$Elmntymdclslocm$row[[2]] %>% 
  as_tibble()

school_df
#> # A tibble: 86 × 18
#>    SCHOOL_ID  SCHOOL_NM SCHOOL…¹ FOUND…² FOUND…³ THSCH…⁴ OPERT…⁵ SIDO_…⁶ SIDO_…⁷
#>    <chr>      <chr>     <chr>    <chr>   <chr>   <chr>   <chr>   <chr>   <chr>  
#>  1 B000004074 계수초등… 초등학교 1949-1… 공립    본교    운영    7530000 경기도…
#>  2 B000004077 하중초등… 초등학교 1999-0… 공립    본교    운영    7530000 경기도…
#>  3 B000004083 송운초등… 초등학교 1997-0… 공립    본교    운영    7530000 경기도…
#>  4 B000004086 시화초등… 초등학교 1997-0… 공립    본교    운영    7530000 경기도…
#>  5 B000004089 냉정초등… 초등학교 1996-0… 공립    본교    운영    7530000 경기도…
#>  6 B000004106 포리초등… 초등학교 1953-1… 공립    본교    운영    7530000 경기도…
#>  7 B000004107 은계초등… 초등학교 1997-0… 공립    본교    운영    7530000 경기도…
#>  8 B000004072 신천초등… 초등학교 1999-0… 공립    본교    운영    7530000 경기도…
#>  9 B000004073 시흥매화… 초등학교 2003-0… 공립    본교    운영    7530000 경기도…
#> 10 B000004075 승지초등… 초등학교 2009-0… 공립    본교    운영    7530000 경기도…
#> # … with 76 more rows, 9 more variables: EDU_SPORT_ADMT_DIV_CD <chr>,
#> #   EDU_SPORT_ADMT_NM <chr>, CREAT_DE <chr>, CHANGE_DE <chr>,
#> #   DATA_STD_DE <chr>, REFINE_LOTNO_ADDR <chr>, REFINE_ROADNM_ADDR <chr>,
#> #   REFINE_WGS84_LOGT <chr>, REFINE_WGS84_LAT <chr>, and abbreviated variable
#> #   names ¹​SCHOOL_RK_DIV_NM, ²​FOUND_DE, ³​FOUND_FORM, ⁴​THSCHOL_BRSCHOL_DIV_NM,
#> #   ⁵​OPERT_STATE_NM, ⁶​SIDO_EDU_ADMT_DIV_CD, ⁷​SIDO_EDU_ADMT_NM
…
  resp <- GET(school_url)
  
  school_json <- content(resp, "text", encoding='utf-8')
  
  school_raw <- jsonlite::fromJSON(school_json)
  
  school_df <- school_raw$Elmntymdclslocm$row[[2]] %>% 
    as_tibble()
  
  school_df
}

get_school_info('7569000') # 안양과천교육청
#> # A tibble: 96 × 18
#>    SCHOOL_ID  SCHOOL_NM SCHOOL…¹ FOUND…² FOUND…³ THSCH…⁴ OPERT…⁵ SIDO_…⁶ SIDO_…⁷
#>    <chr>      <chr>     <chr>    <chr>   <chr>   <chr>   <chr>   <chr>   <chr>  
#>  1 B000003837 덕천초등… 초등학교 1983-0… 공립    본교    운영    7530000 경기도…
#>  2 B000003841 석수초등… 초등학교 1981-1… 공립    본교    운영    7530000 경기도…
#>  3 B000003845 화창초등… 초등학교 2005-0… 공립    본교    운영    7530000 경기도…
#>  4 B000003853 안양중앙… 초등학교 1984-0… 공립    본교    운영    7530000 경기도…
#>  5 B000003856 나눔초등… 초등학교 2006-0… 공립    본교    운영    7530000 경기도…
#>  6 B000003859 평촌초등… 초등학교 1993-0… 공립    본교    운영    7530000 경기도…
#>  7 B000003863 호성초등… 초등학교 1983-0… 공립    본교    운영    7530000 경기도…
#>  8 B000003867 관양초등… 초등학교 1948-0… 공립    본교    운영    7530000 경기도…
#>  9 B000003874 호원초등… 초등학교 1986-0… 공립    본교    운영    7530000 경기도…
#> 10 B000003878 청계초등… 초등학교 1983-0… 공립    본교    운영    7530000 경기도…
#> # … with 86 more rows, 9 more variables: EDU_SPORT_ADMT_DIV_CD <chr>,
#> #   EDU_SPORT_ADMT_NM <chr>, CREAT_DE <chr>, CHANGE_DE <chr>,
#> #   DATA_STD_DE <chr>, REFINE_LOTNO_ADDR <chr>, REFINE_ROADNM_ADDR <chr>,
#> #   REFINE_WGS84_LOGT <chr>, REFINE_WGS84_LAT <chr>, and abbreviated variable
#> #   names ¹​SCHOOL_RK_DIV_NM, ²​FOUND_DE, ³​FOUND_FORM, ⁴​THSCHOL_BRSCHOL_DIV_NM,
#> #   ⁵​OPERT_STATE_NM, ⁶​SIDO_EDU_ADMT_DIV_CD, ⁷​SIDO_EDU_ADMT_NM
…
